%YAML 1.1
%TAG !u! tag:unity3d.com,2011:
--- !u!1045 &1
EditorBuildSettings:
  m_ObjectHideFlags: 0
  serializedVersion: 2
  m_Scenes:
  - enabled: 1
    path: Assets/Scenes/MainMenu.unity
    guid: ac9768e677c8b7848b559b70fdaeb877
  - enabled: 1
    path: Assets/Scenes/GameScene.unity
    guid: 33a013af9d0a1a6448e7cfbecbbb278a
  - enabled: 1
    path: Assets/Scenes/TechWin.unity
    guid: 9665eeb7af3b3ad4db7f6ef9f8aa8af4
  - enabled: 1
    path: Assets/Scenes/NatureWIn.unity
    guid: 6d5e62d38a420394ea40f1c53101be0a
  - enabled: 1
    path: Assets/Scenes/DualityWin.unity
    guid: d3d5fe6b93cb5264e95dc4bb929f1520
  m_configObjects: {}
